module gitlab.com/emink/sync-vault-kv

go 1.21.0

require (
	github.com/hashicorp/errwrap v1.1.0 // indirect
	github.com/hashicorp/go-cleanhttp v0.5.2 // indirect
	github.com/hashicorp/go-multierror v1.1.1 // indirect
	github.com/hashicorp/go-retryablehttp v0.7.4 // indirect
	github.com/hashicorp/go-rootcerts v1.0.2 // indirect
	github.com/hashicorp/go-secure-stdlib/strutil v0.1.2 // indirect
	github.com/hashicorp/vault-client-go v0.3.3 // indirect
	github.com/mitchellh/go-homedir v1.1.0 // indirect
	github.com/ryanuber/go-glob v1.0.0 // indirect
	golang.org/x/exp v0.0.0-20230817173708-d852ddb80c63 // indirect
	golang.org/x/sys v0.11.0 // indirect
	golang.org/x/time v0.3.0 // indirect
)
